// Jest Snapshot v1, https://goo.gl/fbAQLP

exports[`Youtube Player [selected song] should match snapshot 1`] = `
.c0 {
  list-style: none;
  margin: 0;
  padding: 0;
}

.c1 {
  cursor: pointer;
  opacity: .6;
  padding: 5px;
  -webkit-transition: 350ms all linear;
  transition: 350ms all linear;
}

.c1[aria-selected="true"] {
  background-color: azure;
  color: #141414;
  opacity: 1;
  pointer-events: none;
}

.c1:hover {
  opacity: 1;
}

.c2 {
  color: inherit;
  display: block;
  font-size: 1em;
  margin: 0;
  padding: .5em 1em;
  -webkit-text-decoration: none;
  text-decoration: none;
}

.c2 small {
  border-top: 1px solid;
  display: block;
  margin-top: 2px;
  padding-top: 2px;
}

<SongsList
  active={
    Object {
      "author": "Lucio Dalla",
      "duration": 363.59999999999997,
      "id": "JGmPdb0wjQc",
      "title": "Futura",
      "year": 1980,
    }
  }
  data={
    Object {
      "songs": Array [
        Object {
          "author": "Lucio Dalla",
          "duration": 363.59999999999997,
          "id": "JGmPdb0wjQc",
          "title": "Futura",
          "year": 1980,
        },
      ],
    }
  }
  setCurrentSong={[Function]}
>
  <SongsList__List
    aria-label="Giuseppe Mandato's favourites songs"
    role="tablist"
  >
    <StyledComponent
      aria-label="Giuseppe Mandato's favourites songs"
      forwardedComponent={
        Object {
          "$$typeof": Symbol(react.forward_ref),
          "attrs": Array [],
          "componentStyle": ComponentStyle {
            "componentId": "SongsList__List-sc-3ylc3x-0",
            "isStatic": true,
            "lastClassName": "c0",
            "rules": Array [
              "list-style:none;margin:0;padding:0;",
            ],
          },
          "displayName": "SongsList__List",
          "foldedComponentIds": Array [],
          "render": [Function],
          "styledComponentId": "SongsList__List-sc-3ylc3x-0",
          "target": "ul",
          "toString": [Function],
          "warnTooManyClasses": [Function],
          "withComponent": [Function],
        }
      }
      forwardedRef={null}
      role="tablist"
    >
      <ul
        aria-label="Giuseppe Mandato's favourites songs"
        className="c0"
        role="tablist"
      >
        <SongsList__Song
          aria-selected={true}
          key="JGmPdb0wjQc"
        >
          <StyledComponent
            aria-selected={true}
            forwardedComponent={
              Object {
                "$$typeof": Symbol(react.forward_ref),
                "attrs": Array [],
                "componentStyle": ComponentStyle {
                  "componentId": "SongsList__Song-sc-3ylc3x-1",
                  "isStatic": true,
                  "lastClassName": "c1",
                  "rules": Array [
                    "cursor:pointer;opacity:.6;padding:5px;transition:350ms all linear;&[aria-selected=\\"true\\"]{background-color:azure;color:#141414;opacity:1;pointer-events:none;}&:hover{opacity:1;}",
                  ],
                },
                "displayName": "SongsList__Song",
                "foldedComponentIds": Array [],
                "render": [Function],
                "styledComponentId": "SongsList__Song-sc-3ylc3x-1",
                "target": "li",
                "toString": [Function],
                "warnTooManyClasses": [Function],
                "withComponent": [Function],
              }
            }
            forwardedRef={null}
          >
            <li
              aria-selected={true}
              className="c1"
            >
              <SongsList__Title
                aria-controls="tab-JGmPdb0wjQc"
                aria-label="press enter to play: Futura, author: Lucio Dalla, year: 1980"
                aria-selected={true}
                href="/?v=JGmPdb0wjQc"
                id="link-to-JGmPdb0wjQc"
                onClick={[Function]}
                role="tab"
              >
                <StyledComponent
                  aria-controls="tab-JGmPdb0wjQc"
                  aria-label="press enter to play: Futura, author: Lucio Dalla, year: 1980"
                  aria-selected={true}
                  forwardedComponent={
                    Object {
                      "$$typeof": Symbol(react.forward_ref),
                      "attrs": Array [],
                      "componentStyle": ComponentStyle {
                        "componentId": "SongsList__Title-sc-3ylc3x-2",
                        "isStatic": true,
                        "lastClassName": "c2",
                        "rules": Array [
                          "color:inherit;display:block;font-size:1em;margin:0;padding:.5em 1em;text-decoration:none;small{border-top:1px solid;display:block;margin-top:2px;padding-top:2px;}",
                        ],
                      },
                      "displayName": "SongsList__Title",
                      "foldedComponentIds": Array [],
                      "render": [Function],
                      "styledComponentId": "SongsList__Title-sc-3ylc3x-2",
                      "target": "a",
                      "toString": [Function],
                      "warnTooManyClasses": [Function],
                      "withComponent": [Function],
                    }
                  }
                  forwardedRef={null}
                  href="/?v=JGmPdb0wjQc"
                  id="link-to-JGmPdb0wjQc"
                  onClick={[Function]}
                  role="tab"
                >
                  <a
                    aria-controls="tab-JGmPdb0wjQc"
                    aria-label="press enter to play: Futura, author: Lucio Dalla, year: 1980"
                    aria-selected={true}
                    className="c2"
                    href="/?v=JGmPdb0wjQc"
                    id="link-to-JGmPdb0wjQc"
                    onClick={[Function]}
                    role="tab"
                  >
                    1
                     
                    -
                    Futura
                    <small>
                      Lucio Dalla
                      ,
                       
                      1980
                    </small>
                  </a>
                </StyledComponent>
              </SongsList__Title>
            </li>
          </StyledComponent>
        </SongsList__Song>
      </ul>
    </StyledComponent>
  </SongsList__List>
</SongsList>
`;

exports[`Youtube Player should match snapshot 1`] = `
.c0 {
  list-style: none;
  margin: 0;
  padding: 0;
}

.c1 {
  cursor: pointer;
  opacity: .6;
  padding: 5px;
  -webkit-transition: 350ms all linear;
  transition: 350ms all linear;
}

.c1[aria-selected="true"] {
  background-color: azure;
  color: #141414;
  opacity: 1;
  pointer-events: none;
}

.c1:hover {
  opacity: 1;
}

.c2 {
  color: inherit;
  display: block;
  font-size: 1em;
  margin: 0;
  padding: .5em 1em;
  -webkit-text-decoration: none;
  text-decoration: none;
}

.c2 small {
  border-top: 1px solid;
  display: block;
  margin-top: 2px;
  padding-top: 2px;
}

<SongsList
  active={
    Object {
      "id": null,
    }
  }
  data={
    Object {
      "songs": Array [
        Object {
          "author": "Lucio Dalla",
          "duration": 363.59999999999997,
          "id": "JGmPdb0wjQc",
          "title": "Futura",
          "year": 1980,
        },
      ],
    }
  }
  setCurrentSong={[Function]}
>
  <SongsList__List
    aria-label="Giuseppe Mandato's favourites songs"
    role="tablist"
  >
    <StyledComponent
      aria-label="Giuseppe Mandato's favourites songs"
      forwardedComponent={
        Object {
          "$$typeof": Symbol(react.forward_ref),
          "attrs": Array [],
          "componentStyle": ComponentStyle {
            "componentId": "SongsList__List-sc-3ylc3x-0",
            "isStatic": true,
            "lastClassName": "c0",
            "rules": Array [
              "list-style:none;margin:0;padding:0;",
            ],
          },
          "displayName": "SongsList__List",
          "foldedComponentIds": Array [],
          "render": [Function],
          "styledComponentId": "SongsList__List-sc-3ylc3x-0",
          "target": "ul",
          "toString": [Function],
          "warnTooManyClasses": [Function],
          "withComponent": [Function],
        }
      }
      forwardedRef={null}
      role="tablist"
    >
      <ul
        aria-label="Giuseppe Mandato's favourites songs"
        className="c0"
        role="tablist"
      >
        <SongsList__Song
          aria-selected={false}
          key="JGmPdb0wjQc"
        >
          <StyledComponent
            aria-selected={false}
            forwardedComponent={
              Object {
                "$$typeof": Symbol(react.forward_ref),
                "attrs": Array [],
                "componentStyle": ComponentStyle {
                  "componentId": "SongsList__Song-sc-3ylc3x-1",
                  "isStatic": true,
                  "lastClassName": "c1",
                  "rules": Array [
                    "cursor:pointer;opacity:.6;padding:5px;transition:350ms all linear;&[aria-selected=\\"true\\"]{background-color:azure;color:#141414;opacity:1;pointer-events:none;}&:hover{opacity:1;}",
                  ],
                },
                "displayName": "SongsList__Song",
                "foldedComponentIds": Array [],
                "render": [Function],
                "styledComponentId": "SongsList__Song-sc-3ylc3x-1",
                "target": "li",
                "toString": [Function],
                "warnTooManyClasses": [Function],
                "withComponent": [Function],
              }
            }
            forwardedRef={null}
          >
            <li
              aria-selected={false}
              className="c1"
            >
              <SongsList__Title
                aria-controls="tab-JGmPdb0wjQc"
                aria-label="You selected: Futura, author: Lucio Dalla, year: 1980"
                aria-selected={false}
                href="/?v=JGmPdb0wjQc"
                id="link-to-JGmPdb0wjQc"
                onClick={[Function]}
                role="tab"
              >
                <StyledComponent
                  aria-controls="tab-JGmPdb0wjQc"
                  aria-label="You selected: Futura, author: Lucio Dalla, year: 1980"
                  aria-selected={false}
                  forwardedComponent={
                    Object {
                      "$$typeof": Symbol(react.forward_ref),
                      "attrs": Array [],
                      "componentStyle": ComponentStyle {
                        "componentId": "SongsList__Title-sc-3ylc3x-2",
                        "isStatic": true,
                        "lastClassName": "c2",
                        "rules": Array [
                          "color:inherit;display:block;font-size:1em;margin:0;padding:.5em 1em;text-decoration:none;small{border-top:1px solid;display:block;margin-top:2px;padding-top:2px;}",
                        ],
                      },
                      "displayName": "SongsList__Title",
                      "foldedComponentIds": Array [],
                      "render": [Function],
                      "styledComponentId": "SongsList__Title-sc-3ylc3x-2",
                      "target": "a",
                      "toString": [Function],
                      "warnTooManyClasses": [Function],
                      "withComponent": [Function],
                    }
                  }
                  forwardedRef={null}
                  href="/?v=JGmPdb0wjQc"
                  id="link-to-JGmPdb0wjQc"
                  onClick={[Function]}
                  role="tab"
                >
                  <a
                    aria-controls="tab-JGmPdb0wjQc"
                    aria-label="You selected: Futura, author: Lucio Dalla, year: 1980"
                    aria-selected={false}
                    className="c2"
                    href="/?v=JGmPdb0wjQc"
                    id="link-to-JGmPdb0wjQc"
                    onClick={[Function]}
                    role="tab"
                  >
                    1
                     
                    -
                    Futura
                    <small>
                      Lucio Dalla
                      ,
                       
                      1980
                    </small>
                  </a>
                </StyledComponent>
              </SongsList__Title>
            </li>
          </StyledComponent>
        </SongsList__Song>
      </ul>
    </StyledComponent>
  </SongsList__List>
</SongsList>
`;
